{
    "meta": {
        "reasons": ["For didactic purpose","simulated JSON request"],
        "pagination": {
            "total": 1412,
            "pages": 71,
            "page": 1,
            "limit": 20,
            "links": {
                "previous": null,
                "current": "https://gorest.co.in/public/v1/users?page=1",
                "next": "https://gorest.co.in/public/v1/users?page=2"
            }
        }
    },
    "data": [
        {
            "id": 1,
            "name": "Dayaamay Butt II",
            "email": "dayaamay_ii_butt@greenholt.biz",
            "gender": "male",
            "status": "inactive"
        },
        {
            "id": 2,
            "name": "Mandaakin Guha",
            "email": "guha_mandaakin@marks-johnston.co",
            "gender": "female",
            "status": "inactive"
        },
        {
            "id": 3,
            "name": "Gaurang Gandhi",
            "email": "gaurang_gandhi@kshlerin-gutmann.io",
            "gender": "male",
            "status": "active"
        },
        {
            "id": 4,
            "name": "Bilwa Trivedi",
            "email": "trivedi_bilwa@ankunding.com",
            "gender": "female",
            "status": "inactive"
        },
        {
            "id": 5,
            "name": "Jagmeet Sinha",
            "email": "jagmeet_sinha@rowe.info",
            "gender": "male",
            "status": "active"
        },
        {
            "id": 6,
            "name": "Dharani Pothuvaal",
            "email": "dharani_pothuvaal@denesik-stark.io",
            "gender": "female",
            "status": "active"
        },
        {
            "id": 7,
            "name": "Shrishti Adiga",
            "email": "adiga_shrishti@langosh-connelly.io",
            "gender": "male",
            "status": "active"
        },
        {
            "id": 8,
            "name": "Kama Asan",
            "email": "kama_asan@heidenreich.com",
            "gender": "female",
            "status": "inactive"
        },
        {
            "id": 9,
            "name": "Dinesh Trivedi",
            "email": "trivedi_dinesh@flatley.net",
            "gender": "female",
            "status": "inactive"
        },
        {
            "id": 10,
            "name": "Ms. Aanandaswarup Butt",
            "email": "ms_butt_aanandaswarup@treutel.org",
            "gender": "female",
            "status": "active"
        },
        {
            "id": 11,
            "name": "Dwaipayana Ganaka",
            "email": "dwaipayana_ganaka@wilderman.org",
            "gender": "male",
            "status": "inactive"
        },
        {
            "id": 12,
            "name": "Rev. Adhrit Pothuvaal",
            "email": "pothuvaal_rev_adhrit@runolfsson-hermann.name",
            "gender": "male",
            "status": "inactive"
        },
        {
            "id": 13,
            "name": "Miss Kanishka Desai",
            "email": "desai_miss_kanishka@zulauf.info",
            "gender": "female",
            "status": "inactive"
        },
        {
            "id": 14,
            "name": "Adwitiya Sharma JD",
            "email": "jd_sharma_adwitiya@schimmel-collins.com",
            "gender": "male",
            "status": "active"
        },
        {
            "id": 15,
            "name": "Gautama Prajapat",
            "email": "prajapat_gautama@hammes-towne.com",
            "gender": "male",
            "status": "inactive"
        },
        {
            "id": 16,
            "name": "Gopee Chaturvedi",
            "email": "gopee_chaturvedi@labadie.biz",
            "gender": "female",
            "status": "active"
        },
        {
            "id": 17,
            "name": "Anang Bhat",
            "email": "anang_bhat@bahringer-schulist.info",
            "gender": "female",
            "status": "inactive"
        },
        {
            "id": 18,
            "name": "Bhavani Reddy",
            "email": "reddy_bhavani@parisian.biz",
            "gender": "female",
            "status": "active"
        },
        {
            "id": 19,
            "name": "Geeta Verma",
            "email": "verma_geeta@haag.biz",
            "gender": "female",
            "status": "active"
        },
        {
            "id": 20,
            "name": "Mr. Priyala Mehrotra",
            "email": "mehrotra_mr_priyala@haag.co",
            "gender": "female",
            "status": "active"
        }
    ]
}